…
``` r
# install.packages("pak")
pak::pak("m-muecke/ecbr")
```

## Usage

``` r
library(ecbr)

# fetch US dollar/Euro exchange rate
fx_rate <- ecb_data("EXR", "D.USD.EUR.SP00.A", start_period = "2021-01-01")
fx_rate
#> # A tibble: 851 × 6
#>   date       title          description                    unit  frequency value
#>   <date>     <chr>          <chr>                          <chr> <chr>     <dbl>
#> 1 2021-01-04 US dollar/Euro ECB reference exchange rate, … USD   daily      1.23
#> 2 2021-01-05 US dollar/Euro ECB reference exchange rate, … USD   daily      1.23
#> 3 2021-01-06 US dollar/Euro ECB reference exchange rate, … USD   daily      1.23
#> 4 2021-01-07 US dollar/Euro ECB reference exchange rate, … USD   daily      1.23
#> 5 2021-01-08 US dollar/Euro ECB reference exchange rate, … USD   daily      1.23
#> # ℹ 846 more rows
```
…
